ST558 Homework 5
…
Why do we split our data into a training and test set?

The training set is used to train the model we are interested in. The test set is used to test the prediction accuracy of the model. By having separate sets for training and testing, the resulting predictions are less biased and more accurate representations of the model since the test data is unseen during the training process.

Task 2. Fitting Models

The first step is to read in the data. Since it is a csv file, we can use read_csv() from tidyverse. Packages used throughout this document will also be loaded in this step.

library(tidyverse)
library(psych)
library(caret)
heart_data <- read_csv("heart.csv")
heart_data

# A tibble: 918 × 12
     Age Sex   ChestPainType RestingBP Cholesterol FastingBS RestingECG MaxHR
   <dbl> <chr> <chr>             <dbl>       <dbl>     <dbl> <chr>      <dbl>
 1    40 M     ATA                 140         289         0 Normal       172
 2    49 F     NAP                 160         180         0 Normal       156
 3    37 M     ATA                 130         283         0 ST            98
 4    48 F     ASY                 138         214         0 Normal       108
 5    54 M     NAP                 150         195         0 Normal       122
 6    39 M     NAP                 120         339         0 Normal       170
 7    45 F     ATA                 130         237         0 Normal       170
 8    54 M     ATA                 110         208         0 Normal       142
 9    37 M     ASY                 140         207         0 Normal       130
10    48 F     ATA                 120         284         0 Normal       120
# ℹ 908 more rows
# ℹ 4 more variables: ExerciseAngina <chr>, Oldpeak <dbl>, ST_Slope <chr>,
#   HeartDisease <dbl>
…
In looking at the summary statistics above, we can see that the minimum value for RestingBP and cholesterol is zero. Using filter(), we can see that 172 of 918 observations have Cholesterol or RestingBP measurements with inappropriate values of zero that could bias the data.

heart_data |>  filter(RestingBP == 0 | Cholesterol == 0)

# A tibble: 172 × 12
     Age Sex   ChestPainType RestingBP Cholesterol FastingBS RestingECG MaxHR
   <dbl> <chr> <chr>             <dbl>       <dbl>     <dbl> <chr>      <dbl>
 1    65 M     ASY                 115           0         0 Normal        93
 2    32 M     TA                   95           0         1 Normal       127
 3    61 M     ASY                 105           0         1 Normal       110
 4    50 M     ASY                 145           0         1 Normal       139
 5    57 M     ASY                 110           0         1 ST           131
 6    51 M     ASY                 110           0         1 Normal        92
 7    47 M     ASY                 110           0         1 ST           149
 8    60 M     ASY                 160           0         1 Normal       149
 9    55 M     ATA                 140           0         0 ST           150
10    53 M     ASY                 125           0         1 Normal       120
# ℹ 162 more rows
# ℹ 4 more variables: ExerciseAngina <chr>, Oldpeak <dbl>, ST_Slope <chr>,
#   HeartDisease <dbl>

A new data set will be created below removing observations for purposes of determining the relationship between the numeric variables in the data and the HeartDisease variable.

heart_data_d <- heart_data |>
  filter(Cholesterol !=0 & RestingBP != 0)
heart_data_d

# A tibble: 746 × 12
     Age Sex   ChestPainType RestingBP Cholesterol FastingBS RestingECG MaxHR
   <dbl> <chr> <chr>             <dbl>       <dbl>     <dbl> <chr>      <dbl>
 1    40 M     ATA                 140         289         0 Normal       172
 2    49 F     NAP                 160         180         0 Normal       156
 3    37 M     ATA                 130         283         0 ST            98
 4    48 F     ASY                 138         214         0 Normal       108
 5    54 M     NAP                 150         195         0 Normal       122
 6    39 M     NAP                 120         339         0 Normal       170
 7    45 F     ATA                 130         237         0 Normal       170
 8    54 M     ATA                 110         208         0 Normal       142
 9    37 M     ASY                 140         207         0 Normal       130
10    48 F     ATA                 120         284         0 Normal       120
# ℹ 736 more rows
# ℹ 4 more variables: ExerciseAngina <chr>, Oldpeak <dbl>, ST_Slope <chr>,
#   HeartDisease <dbl>
…
  RestingBP         Age Cholesterol       MaxHR     Oldpeak 
  0.1732416   0.2986167   0.1038656  -0.3772122   0.4956963 

2. Remove ST_Slope variable and create factor version of HeartDisease

As discussed previously, the one errant observation with a 0 recorded for RestingBP will be dropped here. The Cholesterol column is also going to be dropped since it has a low linear correlation with the HeartDisease variable and has 171 zeros recorded. These omissions will be done in this data step of removing the ST_Slope variable and converting HeartDisease to a factor.

heart_data <- heart_data |>
  filter(RestingBP != 0) |>
  select(-ST_Slope, -Cholesterol) |>
  mutate(HeartDisease = as.factor(HeartDisease))
heart_data

# A tibble: 917 × 10
     Age Sex   ChestPainType RestingBP FastingBS RestingECG MaxHR ExerciseAngina
   <dbl> <chr> <chr>             <dbl>     <dbl> <chr>      <dbl> <chr>         
 1    40 M     ATA                 140         0 Normal       172 N             
 2    49 F     NAP                 160         0 Normal       156 N             
 3    37 M     ATA                 130         0 ST            98 N             
 4    48 F     ASY                 138         0 Normal       108 Y             
 5    54 M     NAP                 150         0 Normal       122 N             
 6    39 M     NAP                 120         0 Normal       170 N             
 7    45 F     ATA                 130         0 Normal       170 N             
 8    54 M     ATA                 110         0 Normal       142 N             
 9    37 M     ASY                 140         0 Normal       130 Y             
10    48 F     ATA                 120         0 Normal       120 N             
# ℹ 907 more rows
# ℹ 2 more variables: Oldpeak <dbl>, HeartDisease <fct>

3. Create dummy columns for Sex, ExerciseAngina, ChestPainType and RestingECG for KNN analysis

To create dummy columns for Sex, ExerciseAngina, ChestPainType and RestingECG, these variables need to be in factor form.

heart_dataKNN <- heart_data |>
  mutate(Sex = as.factor(Sex),
         ExerciseAngina = as.factor(ExerciseAngina),
         ChestPainType = as.factor(ChestPainType),
         RestingECG = as.factor(RestingECG))
heart_dataKNN

# A tibble: 917 × 10
     Age Sex   ChestPainType RestingBP FastingBS RestingECG MaxHR ExerciseAngina
   <dbl> <fct> <fct>             <dbl>     <dbl> <fct>      <dbl> <fct>         
 1    40 M     ATA                 140         0 Normal       172 N             
 2    49 F     NAP                 160         0 Normal       156 N             
 3    37 M     ATA                 130         0 ST            98 N             
 4    48 F     ASY                 138         0 Normal       108 Y             
 5    54 M     NAP                 150         0 Normal       122 N             
 6    39 M     NAP                 120         0 Normal       170 N             
 7    45 F     ATA                 130         0 Normal       170 N             
 8    54 M     ATA                 110         0 Normal       142 N             
 9    37 M     ASY                 140         0 Normal       130 Y             
10    48 F     ATA                 120         0 Normal       120 N             
# ℹ 907 more rows
# ℹ 2 more variables: Oldpeak <dbl>, HeartDisease <fct>

The dummyVars() function from the caret package will be used to create our dummy columns. This function adds new columns for each level of the variable.

dummy_vars <- dummyVars(~ ChestPainType + RestingECG + Sex + ExerciseAngina, 
                        data = heart_dataKNN)
#dummy_vars
dummies <- predict(dummy_vars, newdata = heart_dataKNN)
#dummies
heart_dataKNN <- heart_dataKNN |>
  select(-ChestPainType, -RestingECG, -Sex, -ExerciseAngina) |>
  bind_cols(dummies)
heart_dataKNN

# A tibble: 917 × 17
     Age RestingBP FastingBS MaxHR Oldpeak HeartDisease ChestPainType.ASY
   <dbl>     <dbl>     <dbl> <dbl>   <dbl> <fct>                    <dbl>
 1    40       140         0   172     0   0                            0
 2    49       160         0   156     1   1                            0
 3    37       130         0    98     0   0                            0
 4    48       138         0   108     1.5 1                            1
 5    54       150         0   122     0   0                            0
 6    39       120         0   170     0   0                            0
 7    45       130         0   170     0   0                            0
 8    54       110         0   142     0   0                            0
 9    37       140         0   130     1.5 1                            1
10    48       120         0   120     0   0                            0
# ℹ 907 more rows
# ℹ 10 more variables: ChestPainType.ATA <dbl>, ChestPainType.NAP <dbl>,
#   ChestPainType.TA <dbl>, RestingECG.LVH <dbl>, RestingECG.Normal <dbl>,
#   RestingECG.ST <dbl>, Sex.F <dbl>, Sex.M <dbl>, ExerciseAngina.N <dbl>,
#   ExerciseAngina.Y <dbl>
…
KNN

Before KNN can be performed, the test and train sets should be pre-processed by centering and scaling. This is done using preProcess() from caret and specifying center and scale in the method.

preProcValues <- preProcess(heartTrain, method = c("center", "scale"))
heartTrainTransformed <- predict(preProcValues, heartTrain)
heartTestTransformed <- predict(preProcValues, heartTest)
heartTrainTransformed

# A tibble: 734 × 17
       Age RestingBP FastingBS  MaxHR Oldpeak HeartDisease ChestPainType.ASY
     <dbl>     <dbl>     <dbl>  <dbl>   <dbl> <fct>                    <dbl>
 1 -1.48       0.427    -0.538  1.37  -0.844  0                       -1.09 
 2 -0.505      1.55     -0.538  0.743  0.0723 1                       -1.09 
 3 -1.80      -0.133    -0.538 -1.53  -0.844  0                       -1.09 
 4 -0.613      0.315    -0.538 -1.13   0.530  1                        0.918
 5  0.0344     0.987    -0.538 -0.587 -0.844  0                       -1.09 
 6 -1.58      -0.692    -0.538  1.29  -0.844  0                       -1.09 
 7 -0.937     -0.133    -0.538  1.29  -0.844  0                       -1.09 
 8  0.0344    -1.25     -0.538  0.196 -0.844  0                       -1.09 
 9 -0.613     -0.692    -0.538 -0.665 -0.844  0                       -1.09 
10  0.466      0.203    -0.538 -1.49   0.988  1                       -1.09 
# ℹ 724 more rows
# ℹ 10 more variables: ChestPainType.ATA <dbl>, ChestPainType.NAP <dbl>,
#   ChestPainType.TA <dbl>, RestingECG.LVH <dbl>, RestingECG.Normal <dbl>,
#   RestingECG.ST <dbl>, Sex.F <dbl>, Sex.M <dbl>, ExerciseAngina.N <dbl>,
#   ExerciseAngina.Y <dbl>

heartTestTransformed

# A tibble: 183 × 17
      Age RestingBP FastingBS     MaxHR Oldpeak HeartDisease ChestPainType.ASY
    <dbl>     <dbl>     <dbl>     <dbl>   <dbl> <fct>                    <dbl>
 1 -1.80      0.427    -0.538 -0.274     0.530  1                        0.918
 2 -1.80     -0.133    -0.538  0.196    -0.844  0                       -1.09 
 3 -1.58     -0.692    -0.538  0.313    -0.844  0                       -1.09 
 4 -0.505     0.427    -0.538  0.117     0.0723 1                        0.918
 5 -1.26     -0.972    -0.538  0.000107 -0.844  0                       -1.09 
 6 -1.91     -0.692    -0.538  0.900     1.90   1                       -1.09 
 7  0.250    -0.133    -0.538 -0.900    -0.844  0                       -1.09 
 8 -1.37     -0.133    -0.538 -0.274     0.988  1                        0.918
 9 -2.34     -0.413    -0.538  0.704    -0.844  0                       -1.09 
10 -0.613     0.987    -0.538 -0.274     0.0723 0                        0.918
# ℹ 173 more rows
# ℹ 10 more variables: ChestPainType.ATA <dbl>, ChestPainType.NAP <dbl>,
#   ChestPainType.TA <dbl>, RestingECG.LVH <dbl>, RestingECG.Normal <dbl>,
#   RestingECG.ST <dbl>, Sex.F <dbl>, Sex.M <dbl>, ExerciseAngina.N <dbl>,
#   ExerciseAngina.Y <dbl>
…
set.seed(100)
trainIndex <- createDataPartition(heart_data$HeartDisease, 
                                  p = 0.8, 
                                  list = FALSE)
heartTrain <- heart_data[trainIndex, ]
heartTest <- heart_data[-trainIndex, ]

Next, the data will be centered and scaled.

preProcValues <- preProcess(heartTrain, method = c("center", "scale"))
heartTrainTransformed <- predict(preProcValues, heartTrain)
heartTestTransformed <- predict(preProcValues, heartTest)
heartTrainTransformed

# A tibble: 734 × 10
       Age Sex   ChestPainType RestingBP FastingBS RestingECG  MaxHR
     <dbl> <chr> <chr>             <dbl>     <dbl> <chr>       <dbl>
 1 -1.48   M     ATA               0.427    -0.538 Normal      1.37 
 2 -0.505  F     NAP               1.55     -0.538 Normal      0.743
 3 -1.80   M     ATA              -0.133    -0.538 ST         -1.53 
 4 -0.613  F     ASY               0.315    -0.538 Normal     -1.13 
 5  0.0344 M     NAP               0.987    -0.538 Normal     -0.587
 6 -1.58   M     NAP              -0.692    -0.538 Normal      1.29 
 7 -0.937  F     ATA              -0.133    -0.538 Normal      1.29 
 8  0.0344 M     ATA              -1.25     -0.538 Normal      0.196
 9 -0.613  F     ATA              -0.692    -0.538 Normal     -0.665
10  0.466  M     ATA               0.203    -0.538 ST         -1.49 
# ℹ 724 more rows
# ℹ 3 more variables: ExerciseAngina <chr>, Oldpeak <dbl>, HeartDisease <fct>

heartTestTransformed

# A tibble: 183 × 10
      Age Sex   ChestPainType RestingBP FastingBS RestingECG     MaxHR
    <dbl> <chr> <chr>             <dbl>     <dbl> <chr>          <dbl>
 1 -1.80  M     ASY               0.427    -0.538 Normal     -0.274   
 2 -1.80  F     NAP              -0.133    -0.538 Normal      0.196   
 3 -1.58  M     ATA              -0.692    -0.538 Normal      0.313   
 4 -0.505 M     ASY               0.427    -0.538 Normal      0.117   
 5 -1.26  F     NAP              -0.972    -0.538 ST          0.000107
 6 -1.91  M     ATA              -0.692    -0.538 Normal      0.900   
 7  0.250 M     NAP              -0.133    -0.538 Normal     -0.900   
 8 -1.37  M     ASY              -0.133    -0.538 ST         -0.274   
 9 -2.34  M     ATA              -0.413    -0.538 Normal      0.704   
10 -0.613 F     ASY               0.987    -0.538 Normal     -0.274   
# ℹ 173 more rows
# ℹ 3 more variables: ExerciseAngina <chr>, Oldpeak <dbl>, HeartDisease <fct>
…
